expresiones regulares

_____________________CORREO________________________________________

/^\w+([\.-]?\w+)*@\w+([\.-]?\w+)*(\.\w{2,3,4})+$/

/^\w+([\.\+\-]?\w+)*@\w+([\.-]?\w+)*(\.\w{2,4})+$/


_______________FECHAS___________________________________-

/^([012][1-9]|3[01])(\/)(0[1-9]|1[012])\2(\d{4})$/

/^\d{1,2}\/\d{1,2}\/\d{2,4}$/



_________________________CODIGO POSTAL________________-----

function validarCodigoPostal()
{
  var input = document.getElementById("codigo").value;
  console.log(parseInt(input))
  if(input.length == 5 && parseInt(input) >= 1000 && parseInt(input) <= 52999)
  {
    alert("codigo valido");
  }
  else{
    alert("codigo invalido");
   }
}
<input type="text" id="codigo" />
<button onclick="validarCodigoPostal()">validar</button>

________________________BUSCAR LONGITUD_________________------



